# Stopwatch by Woramate jumoonsilp

I ran all 5 task on my laptop,and found this solution.

task time
--------  -----------------------
task1   3.714931328

task2    0.00238856

task3    0.095634742

task4   0.010557612

task5   1.048743769
--------  -----------------------


Conclude

I have no idea why add char to string is very long but another are so short.
